Count search results — cnt_search_result • dmcognigen
…
    search_environment_data

    Examples

data(dmcognigen_cov)
study_search <- search_environment_data(
  stringr::regex("study", ignore_case = TRUE)
)
cnt_search_result(
  study_search, 
  n_distinct_vars = c("USUBJID", "SUBJID"), 
  extra_vars = "ACTARM"
)
#> $dmcognigen_cov
#> # A tibble: 254 × 10
#>    STUDYID      RFXSTDTC   RFXENDTC   SITEID  DMDY ACTARM     n_USUBJID n_SUBJID
#>    <chr>        <chr>      <chr>      <chr>  <dbl> <chr>          <int>    <int>
#>  1 CDISCPILOT01 2012-07-09 2013-01-20 716       -3 Placebo            1        1
#>  2 CDISCPILOT01 2012-07-20 2013-01-11 703      -10 Xanomelin…         1        1
#>  3 CDISCPILOT01 2012-07-22 2013-01-20 701      -14 Xanomelin…         1        1
#>  4 CDISCPILOT01 2012-07-29 2013-02-10 711       -9 Placebo            1        1
#>  5 CDISCPILOT01 2012-07-31 2012-08-28 709      -10 Xanomelin…         1        1
#>  6 CDISCPILOT01 2012-08-05 2012-09-01 701      -14 Placebo            1        1
#>  7 CDISCPILOT01 2012-08-30 2012-11-04 704       -7 Placebo            1        1
#>  8 CDISCPILOT01 2012-09-02 2012-12-04 703      -11 Xanomelin…         1        1
#>  9 CDISCPILOT01 2012-09-07 2012-09-16 701      -13 Xanomelin…         1        1
#> 10 CDISCPILOT01 2012-09-07 2013-02-01 705       -5 Xanomelin…         1        1
#> # ℹ 244 more rows
#> # ℹ 2 more variables: n_USUBJID_SUBJID <int>, n <int>
…
