Calculations • dmcognigen
…
dmcognigen_cov %>% 
  mutate(
    CRCL = calculate_crcl(
      age = AGE,
      scr = SCR,
      sexf = SEXF,
      wtkg = WTKG
    )
  ) %>% 
  select(USUBJID, AGE, SCR, SEXF, WTKG, CRCL)
#> Formula to calculate CRCL: 
#>   Males: CRCL [mL/min] = ((140 - AGE [y]) × WTKG [kg]) ÷ (72 × SCR [mg/dL])
#>   Females: CRCL [mL/min] = (((140 - AGE [y]) × WTKG [kg]) ÷ (72 × SCR [mg/dL])) × 0.85
#> # A tibble: 254 × 6
#>    USUBJID       AGE   SCR  SEXF  WTKG  CRCL
#>    <chr>       <dbl> <dbl> <dbl> <dbl> <dbl>
#>  1 01-701-1015    63   0.9     1  54.4  55.0
#>  2 01-701-1023    64   1.4     0  80.3  60.5
#>  3 01-701-1028    71   1.4     0  99.3  68.0
#>  4 01-701-1033    74   1.5     0  88.4  54.1
#>  5 01-701-1034    77   1       1  62.6  46.6
#>  6 01-701-1047    85   1       1  67.1  43.6
#>  7 01-701-1097    68   1.4     0  78.0  55.7
#>  8 01-701-1111    81   0.9     1  59.9  46.3
#>  9 01-701-1115    84   1.3     0  78.9  47.2
#> 10 01-701-1118    52   1       0  71.2  87.0
#> # ℹ 244 more rows
…
dmcognigen_cov %>% 
  mutate(
    CRCL = calculate_crcl()
  ) %>% 
  select(USUBJID, AGE, SCR, SEXF, WTKG, CRCL)
#> AGE variable found and used for the age argument.
#> SCR variable found and used for the scr argument.
#> SEXF variable found and used for the sexf argument.
#> WTKG variable found and used for the wtkg argument.
#> Formula to calculate CRCL: 
#>   Males: CRCL [mL/min] = ((140 - AGE [y]) × WTKG [kg]) ÷ (72 × SCR [mg/dL])
#>   Females: CRCL [mL/min] = (((140 - AGE [y]) × WTKG [kg]) ÷ (72 × SCR [mg/dL])) × 0.85
#> # A tibble: 254 × 6
#>    USUBJID       AGE   SCR  SEXF  WTKG  CRCL
#>    <chr>       <dbl> <dbl> <dbl> <dbl> <dbl>
#>  1 01-701-1015    63   0.9     1  54.4  55.0
#>  2 01-701-1023    64   1.4     0  80.3  60.5
#>  3 01-701-1028    71   1.4     0  99.3  68.0
#>  4 01-701-1033    74   1.5     0  88.4  54.1
#>  5 01-701-1034    77   1       1  62.6  46.6
#>  6 01-701-1047    85   1       1  67.1  43.6
#>  7 01-701-1097    68   1.4     0  78.0  55.7
#>  8 01-701-1111    81   0.9     1  59.9  46.3
#>  9 01-701-1115    84   1.3     0  78.9  47.2
#> 10 01-701-1118    52   1       0  71.2  87.0
#> # ℹ 244 more rows

dmcognigen_cov %>% 
  mutate(
    CRCL = calculate_crcl(age = AGE)
  ) %>% 
  select(USUBJID, AGE, SCR, SEXF, WTKG, CRCL)
#> SCR variable found and used for the scr argument.
#> SEXF variable found and used for the sexf argument.
#> WTKG variable found and used for the wtkg argument.
#> Formula to calculate CRCL: 
#>   Males: CRCL [mL/min] = ((140 - AGE [y]) × WTKG [kg]) ÷ (72 × SCR [mg/dL])
#>   Females: CRCL [mL/min] = (((140 - AGE [y]) × WTKG [kg]) ÷ (72 × SCR [mg/dL])) × 0.85
#> # A tibble: 254 × 6
#>    USUBJID       AGE   SCR  SEXF  WTKG  CRCL
#>    <chr>       <dbl> <dbl> <dbl> <dbl> <dbl>
#>  1 01-701-1015    63   0.9     1  54.4  55.0
#>  2 01-701-1023    64   1.4     0  80.3  60.5
#>  3 01-701-1028    71   1.4     0  99.3  68.0
#>  4 01-701-1033    74   1.5     0  88.4  54.1
#>  5 01-701-1034    77   1       1  62.6  46.6
#>  6 01-701-1047    85   1       1  67.1  43.6
#>  7 01-701-1097    68   1.4     0  78.0  55.7
#>  8 01-701-1111    81   0.9     1  59.9  46.3
#>  9 01-701-1115    84   1.3     0  78.9  47.2
#> 10 01-701-1118    52   1       0  71.2  87.0
#> # ℹ 244 more rows
…
      age = AGE,
      crcl = CRCL,
      ibw = IBW,
      scr = SCR,
      sexf = SEXF,
      wtkg = WTKG
    )
  ) %>% 
  select(USUBJID, AGE, CRCL, IBW, SCR, SEXF, WTKG, CRCLP)
#> Formula to calculate CRCL_PECK: 
#>   If WTKG [kg] < 120% of IBW [kg], CRCL [mL/min] = CRCL [mL/min] (Cockroft & Gault)
#>   If WTKG [kg] >= 120% of IBW [kg]:
#>     Males: CRCL [mL/min] = ((140 - AGE [y]) × IBW [kg]) ÷ (72 × SCR [mg/dL])
#>     Females: CRCL [mL/min] = (((140 - AGE [y]) × IBW [kg]) ÷ (72 × SCR [mg/dL])) × 0.85
#> # A tibble: 254 × 8
#>    USUBJID       AGE  CRCL   IBW   SCR  SEXF  WTKG CRCLP
#>    <chr>       <dbl> <dbl> <dbl> <dbl> <dbl> <dbl> <dbl>
#>  1 01-701-1015    63  55.0  45.4   0.9     1  54.4  55.0
#>  2 01-701-1023    64  60.5  59.0   1.4     0  80.3  44.5
#>  3 01-701-1028    71  68.0  70.2   1.4     0  99.3  48.0
#>  4 01-701-1033    74  54.1  68.3   1.5     0  88.4  41.7
#>  5 01-701-1034    77  46.6  50.3   1       1  62.6  37.4
#>  6 01-701-1047    85  43.6  46.2   1       1  67.1  30.0
#>  7 01-701-1097    68  55.7  63.7   1.4     0  78.0  45.5
#>  8 01-701-1111    81  46.3  52.5   0.9     1  59.9  46.3
#>  9 01-701-1115    84  47.2  72.9   1.3     0  78.9  47.2
#> 10 01-701-1118    52  87.0  72     1       0  71.2  87.0
#> # ℹ 244 more rows
…
    CRCLP = calculate_crcl_peck()
  ) %>% 
  select(USUBJID, AGE, CRCL, IBW, SCR, SEXF, WTKG, CRCLP)
#> AGE variable found and used for the age argument.
#> CRCL variable found and used for the crcl argument.
#> IBW variable found and used for the ibw argument.
#> SCR variable found and used for the scr argument.
#> SEXF variable found and used for the sexf argument.
#> WTKG variable found and used for the wtkg argument.
#> Formula to calculate CRCL_PECK: 
#>   If WTKG [kg] < 120% of IBW [kg], CRCL [mL/min] = CRCL [mL/min] (Cockroft & Gault)
#>   If WTKG [kg] >= 120% of IBW [kg]:
#>     Males: CRCL [mL/min] = ((140 - AGE [y]) × IBW [kg]) ÷ (72 × SCR [mg/dL])
#>     Females: CRCL [mL/min] = (((140 - AGE [y]) × IBW [kg]) ÷ (72 × SCR [mg/dL])) × 0.85
#> # A tibble: 254 × 8
#>    USUBJID       AGE  CRCL   IBW   SCR  SEXF  WTKG CRCLP
#>    <chr>       <dbl> <dbl> <dbl> <dbl> <dbl> <dbl> <dbl>
#>  1 01-701-1015    63  55.0  45.4   0.9     1  54.4  55.0
#>  2 01-701-1023    64  60.5  59.0   1.4     0  80.3  44.5
#>  3 01-701-1028    71  68.0  70.2   1.4     0  99.3  48.0
#>  4 01-701-1033    74  54.1  68.3   1.5     0  88.4  41.7
#>  5 01-701-1034    77  46.6  50.3   1       1  62.6  37.4
#>  6 01-701-1047    85  43.6  46.2   1       1  67.1  30.0
#>  7 01-701-1097    68  55.7  63.7   1.4     0  78.0  45.5
#>  8 01-701-1111    81  46.3  52.5   0.9     1  59.9  46.3
#>  9 01-701-1115    84  47.2  72.9   1.3     0  78.9  47.2
#> 10 01-701-1118    52  87.0  72     1       0  71.2  87.0
#> # ℹ 244 more rows
…
Examples

All expected variables are provided:

dmcognigen_cov %>% 
  mutate(
    BMI = calculate_bmi(
      htcm = HTCM,
      wtkg = WTKG 
    )
  ) %>% 
  select(USUBJID, HTCM, WTKG, BMI)
#> Formula to calculate BMI: 
#>   BMI [kg/m^2] = WTKG [kg] ÷ (HTCM [cm] ÷ 100) ^ 2
#> # A tibble: 254 × 4
#>    USUBJID      HTCM  WTKG   BMI
#>    <chr>       <dbl> <dbl> <dbl>
#>  1 01-701-1015  147.  54.4  25.1
#>  2 01-701-1023  163.  80.3  30.4
#>  3 01-701-1028  178.  99.3  31.4
#>  4 01-701-1033  175.  88.4  28.8
#>  5 01-701-1034  155.  62.6  26.1
#>  6 01-701-1047  149.  67.1  30.4
#>  7 01-701-1097  169.  78.0  27.3
#>  8 01-701-1111  158.  59.9  23.9
#>  9 01-701-1115  182.  78.9  23.9
#> 10 01-701-1118  180.  71.2  21.9
#> # ℹ 244 more rows

All or some of expected variables are missing. In this case, the
function will try to detect those missing variables from the parent
environment:

dmcognigen_cov %>% 
  mutate(
    BMI = calculate_bmi()
  ) %>% 
  select(USUBJID, HTCM, WTKG, BMI)
#> HTCM variable found and used for the htcm argument.
#> WTKG variable found and used for the wtkg argument.
#> Formula to calculate BMI: 
#>   BMI [kg/m^2] = WTKG [kg] ÷ (HTCM [cm] ÷ 100) ^ 2
#> # A tibble: 254 × 4
#>    USUBJID      HTCM  WTKG   BMI
#>    <chr>       <dbl> <dbl> <dbl>
#>  1 01-701-1015  147.  54.4  25.1
#>  2 01-701-1023  163.  80.3  30.4
#>  3 01-701-1028  178.  99.3  31.4
#>  4 01-701-1033  175.  88.4  28.8
#>  5 01-701-1034  155.  62.6  26.1
#>  6 01-701-1047  149.  67.1  30.4
#>  7 01-701-1097  169.  78.0  27.3
#>  8 01-701-1111  158.  59.9  23.9
#>  9 01-701-1115  182.  78.9  23.9
#> 10 01-701-1118  180.  71.2  21.9
#> # ℹ 244 more rows
…
Examples

All expected variables are provided:

dmcognigen_cov %>% 
  mutate(
    BSA = calculate_bsa(
      htcm = HTCM, 
      wtkg = WTKG
    )
  ) %>% 
  select(USUBJID, HTCM, WTKG, BSA)
#> Formula to calculate BSA: 
#>   BSA [m^2] = ((HTCM [cm]) ^ 0.42246 * (WTKG [kg]) ^ 0.51456) * 0.0235
#> # A tibble: 254 × 4
#>    USUBJID      HTCM  WTKG   BSA
#>    <chr>       <dbl> <dbl> <dbl>
#>  1 01-701-1015  147.  54.4  1.51
#>  2 01-701-1023  163.  80.3  1.93
#>  3 01-701-1028  178.  99.3  2.23
#>  4 01-701-1033  175.  88.4  2.09
#>  5 01-701-1034  155.  62.6  1.66
#>  6 01-701-1047  149.  67.1  1.69
#>  7 01-701-1097  169.  78.0  1.93
#>  8 01-701-1111  158.  59.9  1.64
#>  9 01-701-1115  182.  78.9  2.00
#> 10 01-701-1118  180.  71.2  1.89
#> # ℹ 244 more rows

All or some of expected variables are missing. In this case, the
function will try to detect those missing variables from the parent
environment:

dmcognigen_cov %>% 
  mutate(
    BSA = calculate_bsa()
  ) %>% 
  select(USUBJID, HTCM, WTKG, BSA)
#> HTCM variable found and used for the htcm argument.
#> WTKG variable found and used for the wtkg argument.
#> Formula to calculate BSA: 
#>   BSA [m^2] = ((HTCM [cm]) ^ 0.42246 * (WTKG [kg]) ^ 0.51456) * 0.0235
#> # A tibble: 254 × 4
#>    USUBJID      HTCM  WTKG   BSA
#>    <chr>       <dbl> <dbl> <dbl>
#>  1 01-701-1015  147.  54.4  1.51
#>  2 01-701-1023  163.  80.3  1.93
#>  3 01-701-1028  178.  99.3  2.23
#>  4 01-701-1033  175.  88.4  2.09
#>  5 01-701-1034  155.  62.6  1.66
#>  6 01-701-1047  149.  67.1  1.69
#>  7 01-701-1097  169.  78.0  1.93
#>  8 01-701-1111  158.  59.9  1.64
#>  9 01-701-1115  182.  78.9  2.00
#> 10 01-701-1118  180.  71.2  1.89
#> # ℹ 244 more rows
…
All expected variables are provided:

dmcognigen_cov %>% 
  mutate(
    LBM = calculate_lbm(
      htcm = HTCM,
      sexf = SEXF,
      wtkg = WTKG
    )
  ) %>% 
  select(USUBJID, HTCM, SEXF, WTKG, LBM)
#> Formula to calculate LBM: 
#>   Males: LBM [kg] = (1.10 × WTKG [kg]) - 128 × ((WTKG [kg]) ^ 2 ÷ (HTCM [cm]) ^ 2)
#>   Females: LBM [kg] = (1.07 × WTKG [kg]) - 148 × ((WTKG [kg]) ^ 2 ÷ (HTCM [cm]) ^ 2)
#> # A tibble: 254 × 5
#>    USUBJID      HTCM  SEXF  WTKG   LBM
#>    <chr>       <dbl> <dbl> <dbl> <dbl>
#>  1 01-701-1015  147.     1  54.4  38.0
#>  2 01-701-1023  163.     0  80.3  57.1
#>  3 01-701-1028  178.     0  99.3  69.3
#>  4 01-701-1033  175.     0  88.4  64.7
#>  5 01-701-1034  155.     1  62.6  42.8
#>  6 01-701-1047  149.     1  67.1  41.6
#>  7 01-701-1097  169.     0  78.0  58.5
#>  8 01-701-1111  158.     1  59.9  42.9
#>  9 01-701-1115  182.     0  78.9  62.6
#> 10 01-701-1118  180.     0  71.2  58.4
#> # ℹ 244 more rows
…
dmcognigen_cov %>% 
  mutate(
    LBM = calculate_lbm()
  ) %>% 
  select(USUBJID, HTCM, SEXF, WTKG, LBM)
#> HTCM variable found and used for the htcm argument.
#> SEXF variable found and used for the sexf argument.
#> WTKG variable found and used for the wtkg argument.
#> Formula to calculate LBM: 
#>   Males: LBM [kg] = (1.10 × WTKG [kg]) - 128 × ((WTKG [kg]) ^ 2 ÷ (HTCM [cm]) ^ 2)
#>   Females: LBM [kg] = (1.07 × WTKG [kg]) - 148 × ((WTKG [kg]) ^ 2 ÷ (HTCM [cm]) ^ 2)
#> # A tibble: 254 × 5
#>    USUBJID      HTCM  SEXF  WTKG   LBM
#>    <chr>       <dbl> <dbl> <dbl> <dbl>
#>  1 01-701-1015  147.     1  54.4  38.0
#>  2 01-701-1023  163.     0  80.3  57.1
#>  3 01-701-1028  178.     0  99.3  69.3
#>  4 01-701-1033  175.     0  88.4  64.7
#>  5 01-701-1034  155.     1  62.6  42.8
#>  6 01-701-1047  149.     1  67.1  41.6
#>  7 01-701-1097  169.     0  78.0  58.5
#>  8 01-701-1111  158.     1  59.9  42.9
#>  9 01-701-1115  182.     0  78.9  62.6
#> 10 01-701-1118  180.     0  71.2  58.4
#> # ℹ 244 more rows
…
All expected variables are provided:

dmcognigen_cov %>% 
  mutate(
    IBW = calculate_ibw(
      htcm = HTCM,
      sexf = SEXF 
    )
  ) %>% 
  select(USUBJID, HTCM, SEXF, IBW)
#> Formula to calculate IBW: 
#>   Males: IBW [kg] = 51.65 [kg] + 1.85 [kg] × ((HTCM [cm] ÷ 2.54) - 60)
#>   Females: IBW [kg] = 48.67 [kg] + 1.65 [kg] × ((HTCM [cm] ÷ 2.54) - 60)
#> # A tibble: 254 × 4
#>    USUBJID      HTCM  SEXF   IBW
#>    <chr>       <dbl> <dbl> <dbl>
#>  1 01-701-1015  147.     1  45.4
#>  2 01-701-1023  163.     0  59.0
#>  3 01-701-1028  178.     0  70.2
#>  4 01-701-1033  175.     0  68.3
#>  5 01-701-1034  155.     1  50.3
#>  6 01-701-1047  149.     1  46.2
#>  7 01-701-1097  169.     0  63.7
#>  8 01-701-1111  158.     1  52.5
#>  9 01-701-1115  182.     0  72.9
#> 10 01-701-1118  180.     0  72  
#> # ℹ 244 more rows
All or some of expected variables are missing. In this case, the
function will try to detect those missing variables from the parent
environment:

dmcognigen_cov %>% 
  mutate(
    IBW = calculate_ibw()
  ) %>% 
  select(USUBJID, HTCM, SEXF, IBW)
#> HTCM variable found and used for the htcm argument.
#> SEXF variable found and used for the sexf argument.
#> Formula to calculate IBW: 
#>   Males: IBW [kg] = 51.65 [kg] + 1.85 [kg] × ((HTCM [cm] ÷ 2.54) - 60)
#>   Females: IBW [kg] = 48.67 [kg] + 1.65 [kg] × ((HTCM [cm] ÷ 2.54) - 60)
#> # A tibble: 254 × 4
#>    USUBJID      HTCM  SEXF   IBW
#>    <chr>       <dbl> <dbl> <dbl>
#>  1 01-701-1015  147.     1  45.4
#>  2 01-701-1023  163.     0  59.0
#>  3 01-701-1028  178.     0  70.2
#>  4 01-701-1033  175.     0  68.3
#>  5 01-701-1034  155.     1  50.3
#>  6 01-701-1047  149.     1  46.2
#>  7 01-701-1097  169.     0  63.7
#>  8 01-701-1111  158.     1  52.5
#>  9 01-701-1115  182.     0  72.9
#> 10 01-701-1118  180.     0  72  
#> # ℹ 244 more rows
…
All expected variables are provided:

dmcognigen_cov %>% 
  mutate(
    IBWCHILD = calculate_ibw_child(age = AGE, htcm = HTCM)
  ) %>% 
  select(USUBJID, AGE, HTCM, IBWCHILD)
#> Formula to calculate IBW_CHILD: 
#>   IBW [kg] = [(HTCM [cm]) ^ 2 × 1.65] ÷ 1000
#> Warning: There was 1 warning in `mutate()`.
#> ℹ In argument: `IBWCHILD = calculate_ibw_child(age = AGE, htcm = HTCM)`.
#> Caused by warning:
#> ! Cases where AGE > 18 were detected. This formula is intended for children.
#> # A tibble: 254 × 4
#>    USUBJID       AGE  HTCM IBWCHILD
#>    <chr>       <dbl> <dbl>    <dbl>
#>  1 01-701-1015    63  147.     35.8
#>  2 01-701-1023    64  163.     43.6
#>  3 01-701-1028    71  178.     52.2
#>  4 01-701-1033    74  175.     50.7
#>  5 01-701-1034    77  155.     39.6
#>  6 01-701-1047    85  149.     36.4
#>  7 01-701-1097    68  169.     47.1
#>  8 01-701-1111    81  158.     41.3
#>  9 01-701-1115    84  182.     54.4
#> 10 01-701-1118    52  180.     53.7
#> # ℹ 244 more rows
…
dmcognigen_cov %>% 
  mutate(
    IBWCHILD = calculate_ibw_child()
  ) %>% 
  select(USUBJID, AGE, HTCM, IBWCHILD)
#> AGE variable found and used for the age argument.
#> HTCM variable found and used for the htcm argument.
#> Formula to calculate IBW_CHILD: 
#>   IBW [kg] = [(HTCM [cm]) ^ 2 × 1.65] ÷ 1000
#> Warning: There was 1 warning in `mutate()`.
#> ℹ In argument: `IBWCHILD = calculate_ibw_child()`.
#> Caused by warning:
#> ! Cases where AGE > 18 were detected. This formula is intended for children.
#> # A tibble: 254 × 4
#>    USUBJID       AGE  HTCM IBWCHILD
#>    <chr>       <dbl> <dbl>    <dbl>
#>  1 01-701-1015    63  147.     35.8
#>  2 01-701-1023    64  163.     43.6
#>  3 01-701-1028    71  178.     52.2
#>  4 01-701-1033    74  175.     50.7
#>  5 01-701-1034    77  155.     39.6
#>  6 01-701-1047    85  149.     36.4
#>  7 01-701-1097    68  169.     47.1
#>  8 01-701-1111    81  158.     41.3
#>  9 01-701-1115    84  182.     54.4
#> 10 01-701-1118    52  180.     53.7
#> # ℹ 244 more rows
…
All expected variables are provided:

dmcognigen_cov %>% 
  mutate(
    EGFR = calculate_egfr(
      age = AGE,
      racen = RACEN,
      scr = SCR,
      sexf = SEXF
    )
  ) %>% 
  select(USUBJID, AGE, RACEN, SCR, SEXF, EGFR)
#> Formula to calculate EGFR: 
#>   EGFR [mL/min/1.73m^2] = 175 × (SCR [mg/dL] ^ -1.154) × (AGE [y] ^ -0.203) × (0.742 if female) × (1.212 if African American)
#> # A tibble: 254 × 6
#>    USUBJID       AGE RACEN   SCR  SEXF  EGFR
#>    <chr>       <dbl> <dbl> <dbl> <dbl> <dbl>
#>  1 01-701-1015    63     1   0.9     1  63.2
#>  2 01-701-1023    64     1   1.4     0  51.0
#>  3 01-701-1028    71     1   1.4     0  50.0
#>  4 01-701-1033    74     1   1.5     0  45.7
#>  5 01-701-1034    77     1   1       1  53.8
#>  6 01-701-1047    85     1   1       1  52.7
#>  7 01-701-1097    68     1   1.4     0  50.4
#>  8 01-701-1111    81     1   0.9     1  60.1
#>  9 01-701-1115    84     1   1.3     0  52.6
#> 10 01-701-1118    52     1   1       0  78.5
#> # ℹ 244 more rows
…
dmcognigen_cov %>% 
  mutate(
    EGFR = calculate_egfr()
  ) %>% 
  select(USUBJID, AGE, RACEN, SCR, SEXF, EGFR)
#> AGE variable found and used for the age argument.
#> RACEN variable found and used for the racen argument.
#> SCR variable found and used for the scr argument.
#> SEXF variable found and used for the sexf argument.
#> Formula to calculate EGFR: 
#>   EGFR [mL/min/1.73m^2] = 175 × (SCR [mg/dL] ^ -1.154) × (AGE [y] ^ -0.203) × (0.742 if female) × (1.212 if African American)
#> # A tibble: 254 × 6
#>    USUBJID       AGE RACEN   SCR  SEXF  EGFR
#>    <chr>       <dbl> <dbl> <dbl> <dbl> <dbl>
#>  1 01-701-1015    63     1   0.9     1  63.2
#>  2 01-701-1023    64     1   1.4     0  51.0
#>  3 01-701-1028    71     1   1.4     0  50.0
#>  4 01-701-1033    74     1   1.5     0  45.7
#>  5 01-701-1034    77     1   1       1  53.8
#>  6 01-701-1047    85     1   1       1  52.7
#>  7 01-701-1097    68     1   1.4     0  50.4
#>  8 01-701-1111    81     1   0.9     1  60.1
#>  9 01-701-1115    84     1   1.3     0  52.6
#> 10 01-701-1118    52     1   1       0  78.5
#> # ℹ 244 more rows
…
  ) %>% 
  select(USUBJID, AGE, HTCM, SCR, SEXF, EGFR_CHILD)
#> Formula to calculate EGFR_CHILD: 
#>   Children (AGE [y] <= 16), where:
#>   EGFR = (k * HTCM [cm]) / SCR [mg/dL]
#>   k = 0.45 for AGE [y] <= 1 (full term)
#>   k = 0.55 for girls 1 < AGE [y] <= 16
#>   k = 0.55 for boys 1 < AGE [y] < 13
#>   k = 0.70 for boys 13 <= AGE [y] <= 16
#> Warning: There was 1 warning in `mutate()`.
#> ℹ In argument: `EGFR_CHILD = calculate_egfr_child(age = AGE, htcm = HTCM, scr =
#>   SCR, sexf = SEXF)`.
#> Caused by warning:
#> ! Cases where AGE > 16 were detected. This formula is intended for children.
#> # A tibble: 254 × 6
#>    USUBJID       AGE  HTCM   SCR  SEXF EGFR_CHILD
#>    <chr>       <dbl> <dbl> <dbl> <dbl>      <dbl>
#>  1 01-701-1015    63  147.   0.9     1         NA
#>  2 01-701-1023    64  163.   1.4     0         NA
#>  3 01-701-1028    71  178.   1.4     0         NA
#>  4 01-701-1033    74  175.   1.5     0         NA
#>  5 01-701-1034    77  155.   1       1         NA
#>  6 01-701-1047    85  149.   1       1         NA
#>  7 01-701-1097    68  169.   1.4     0         NA
#>  8 01-701-1111    81  158.   0.9     1         NA
#>  9 01-701-1115    84  182.   1.3     0         NA
#> 10 01-701-1118    52  180.   1       0         NA
#> # ℹ 244 more rows
…
