Decode Tables • dmcognigen
…
Since the resulting variables are factors, they are easy to summarize
with across(). This example provides a summary of
categorical covariates by ID.

pk_numeric %>% 
  select(all_of(stationary_variables(., ID))) %>% 
  set_decode_factors(requirements) %>% 
  cnt(across(where(is.factor)), n_distinct_vars = ID)
#> ✔ Modified variable `NCILIV` as a factor of `NCILIV`.
#> ✔ Modified variable `RACEN` as a factor of `RACEN`.
#> ✔ Modified variable `RFCAT` as a factor of `RFCAT`.
#> ✔ Modified variable `SEXF` as a factor of `SEXF`.
#> # A tibble: 22 × 7
#>    RACEN           SEXF   RFCAT                  NCILIV  n_ID     n n_cumulative
#>    <fct>           <fct>  <fct>                  <fct>  <int> <int>        <int>
#>  1 White/Caucasian Male   Mild Impairment (60-8… Norma…    26   364          364
#>  2 White/Caucasian Male   Mild Impairment (60-8… Mild …     3    42          406
#>  3 White/Caucasian Male   Mild Impairment (60-8… Mild …     1    14          420
#>  4 White/Caucasian Male   Mild Impairment (60-8… Moder…     1    14          434
#>  5 White/Caucasian Male   Moderate Impairment (… Norma…    65   910         1344
#>  6 White/Caucasian Male   Moderate Impairment (… Mild …     1    14         1358
#>  7 White/Caucasian Male   Moderate Impairment (… Mild …     4    56         1414
#>  8 White/Caucasian Male   NA                     Norma…     3    42         1456
#>  9 White/Caucasian Female Mild Impairment (60-8… Norma…    30   420         1876
#> 10 White/Caucasian Female Mild Impairment (60-8… Mild …     3    42         1918
#> # ℹ 12 more rows
…
