Data requirements • dmcognigen
…
Create or modify variables as factors

Use set_decode_factors() to either modify variables
in-place or create new variables.

dmcognigen_cov %>% 
  set_decode_factors(requirements, new_names = list(RACEN = "RACEN", "{var}FCT")) %>% 
  cnt(RACEN, across(ends_with("FCT")), n_cumulative = FALSE)
#> ✔ Created new variable `NCILIVFCT` as a factor of `NCILIV`.
#> ✔ Modified variable `RACEN` as a factor of `RACEN`.
#> ✔ Created new variable `RFCATFCT` as a factor of `RFCAT`.
#> ✔ Created new variable `SEXFFCT` as a factor of `SEXF`.
#> # A tibble: 22 × 5
#>    RACEN           NCILIVFCT      RFCATFCT                         SEXFFCT     n
#>    <fct>           <fct>          <fct>                            <fct>   <int>
#>  1 White/Caucasian Normal Group A Mild Impairment (60-89 mL/min)   Male       26
#>  2 White/Caucasian Normal Group A Mild Impairment (60-89 mL/min)   Female     30
#>  3 White/Caucasian Normal Group A Moderate Impairment (30-59 mL/m… Male       65
#>  4 White/Caucasian Normal Group A Moderate Impairment (30-59 mL/m… Female     78
#>  5 White/Caucasian Normal Group A NA                               Male        3
#>  6 White/Caucasian Normal Group A NA                               Female      5
#>  7 White/Caucasian Mild Group B1  Mild Impairment (60-89 mL/min)   Male        3
#>  8 White/Caucasian Mild Group B1  Mild Impairment (60-89 mL/min)   Female      3
#>  9 White/Caucasian Mild Group B1  Moderate Impairment (30-59 mL/m… Male        1
#> 10 White/Caucasian Mild Group B1  Moderate Impairment (30-59 mL/m… Female      6
#> # ℹ 12 more rows
…
