Search Environment Data • dmcognigen
…
One way to further collect and review the results is to
bind_rows().

search_environment_data(
  regex("STUDYID", ignore_case = TRUE),
  envir = pharmaversesdtm_data_env
) %>% 
  cnt_search_result(
    n_distinct_vars = "USUBJID"
  ) %>% 
  bind_rows(.id = "dataset")
#> # A tibble: 44 × 4
#>    dataset    STUDYID      n_USUBJID     n
#>    <chr>      <chr>            <int> <int>
#>  1 ae         CDISCPILOT01       225  1191
#>  2 ae_ophtha  CDISCPILOT01       225  1191
#>  3 ce_vaccine ABC                  2    44
#>  4 cm         CDISCPILOT01       229  7510
#>  5 dm         CDISCPILOT01       306   306
#>  6 dm_peds    CDISCPILOT01         5     5
#>  7 dm_vaccine ABC                  2     2
#>  8 ds         CDISCPILOT01       306   850
#>  9 eg         CDISCPILOT01       254 26717
#> 10 ex         CDISCPILOT01       254   591
#> # ℹ 34 more rows
…
